[
    {
        "id" : 0,
        "name": "Суп",
        "category" : 0,
        "image" : "./image/soup.jpg",         
        "description" : "описание блюда",
        "price": 10
    },

    {
        "id" : 1,
        "name": "Борщ",
        "category" : 0,
        "image" : "./image/borsch.jpg", 
        "description" : "описание блюда",
        "price": 10
    },

    {
        "id" : 2,
        "name": "Стейк",
        "category" : 0,
        "image" : "./image/steik.jpg", 
        "description" : "описание блюда",
        "price": 10
    },

    {
        "id" : 3,
        "name": "Картофель",
        "category" : 0,
        "image" : "./image/kartoshka.jpg", 
        "description" : "описание блюда",
        "price": 10
    },

    {
        "id" : 4,
        "name": "Вино",
        "category" : 0,
        "image" : "./image/vino.jpg", 
        "description" : "описание блюда",
        "price": 10
    }
    
]

